\relax 
\select@language{american}
\@writefile{toc}{\select@language{american}}
\@writefile{lof}{\select@language{american}}
\@writefile{lot}{\select@language{american}}
\@writefile{toc}{\contentsline {section}{\numberline {1}Introduction}{1}}
\@writefile{toc}{\contentsline {section}{\numberline {2}Background for hyper and complex Wishart distributions}{1}}
\@writefile{toc}{\contentsline {subsection}{\numberline {2.1}Decomposable Graphs}{1}}
\@writefile{toc}{\contentsline {subsection}{\numberline {2.2}Conditional independence and Markov distributions}{1}}
\@writefile{toc}{\contentsline {subsubsection}{\numberline {2.2.1}Example: Normal distribution}{1}}
\@writefile{toc}{\contentsline {subsection}{\numberline {2.3}The Hyper Wishart distribution and Hyper Markov laws}{2}}
\@writefile{toc}{\contentsline {subsection}{\numberline {2.4}Complex Normal distribution}{2}}
\@writefile{toc}{\contentsline {subsection}{\numberline {2.5}Complex Wishart}{2}}
\@writefile{toc}{\contentsline {section}{\numberline {3}Background for spectral inference of stationary time series}{3}}
\@writefile{toc}{\contentsline {subsection}{\numberline {3.1}Stationary time series}{3}}
\newlabel{eqn:statlik}{{15}{3}}
\@writefile{toc}{\contentsline {subsection}{\numberline {3.2}Conditional independence graphs for Gaussian stationary time series}{3}}
\newlabel{eqn:gausind}{{17}{3}}
\@writefile{toc}{\contentsline {subsection}{\numberline {3.3}Spectral density matrix}{3}}
\@writefile{toc}{\contentsline {subsection}{\numberline {3.4}The Whittle approximation}{4}}
\@writefile{toc}{\contentsline {section}{\numberline {4}Bayesian spectral inference of stationary time series}{4}}
\@writefile{toc}{\contentsline {subsection}{\numberline {4.1}Markov complex Normal and hyper complex Wisharts}{4}}
\newlabel{sec:hypcomw}{{4.1}{4}}
\@writefile{toc}{\contentsline {subsection}{\numberline {4.2}Spectral model for time series graphs}{5}}
\newlabel{generative_mod}{{4.2}{5}}
\newlabel{eq:marg}{{38}{5}}
\@writefile{toc}{\contentsline {section}{\numberline {5}Modifications for graph inference from a single realization of the time series, N = 1}{6}}
\@writefile{toc}{\contentsline {subsection}{\numberline {5.1}Piecewise constant spectral density prior}{6}}
\newlabel{constant}{{5.1}{6}}
\newlabel{eq:marg}{{45}{6}}
\@writefile{toc}{\contentsline {subsection}{\numberline {5.2}Splitting time series into multiple mini batches}{7}}
\newlabel{splitting}{{5.2}{7}}
\@writefile{toc}{\contentsline {subsection}{\numberline {5.3}Comparison between above approaches}{7}}
\@writefile{toc}{\contentsline {section}{\numberline {6}Model Selection and Fractional Priors}{7}}
\@writefile{toc}{\contentsline {section}{\numberline {7}Approximate Inference}{7}}
\@writefile{toc}{\contentsline {subsection}{\numberline {7.1}Metropolis Hastings Sampler}{7}}
\@writefile{toc}{\contentsline {subsubsection}{\numberline {7.1.1}Efficient Computation}{8}}
\newlabel{tim:add}{{1}{8}}
\newlabel{tim:update}{{2}{9}}
