-2.26691718039598 1.66887697313826 -1.83533268848378 -1.60033681544475 -0.624889931252266 -1.63442083200964 -1.88141296155596 -1.18768112627771 -1.67749261673718 -3.63011156082032 0.0322204326734597 -0.317600285577678 1.15590381958373 0.0421511875065290 -0.571061777030402 0.343268355257646 -0.809349111174435 0.117687429349830 1.67400561777966 -0.551200839570087 -1.26561150062691 0.857795198111923 0.28574656170661 0.683222048251257 0.47215277167169
0.162043239719372 1.5332220661877 0.310766521817679 0.438347785552713 1.72750147306834 0.299145376017800 0.0798743366202335 1.15719963162512 1.10984166080273 1.08419932071380 0.153472200339945 -0.866956501926785 -0.247568892001826 0.236990671190934 -1.11734548003623 -0.120728519104151 1.27817767399310 -0.936524779450988 -0.188449424868746 -1.11877681094479 1.33655163212521 -1.09058103951463 -1.30958022871063 -1.66390186034346 -0.401080845635646
0.484543034599167 0.415186035152855 0.191232615854369 0.512292325552564 0.489973459938352 0.442657150940247 0.330168641068895 -0.665594915985664 0.856409863841769 2.21754377939983 0.756950427263617 0.0254443383965399 0.340695337159514 -1.87443149314355 0.982821875913697 -0.494420187567393 -1.20084518596359 -0.611801843340738 1.72221926343480 0.152554408943418 1.44078696914876 -0.350206165946741 -1.39559097817381 0.60834873927349 0.0783928381998645
0.386082917986891 0.219406375833131 0.5995934452811 1.05163765969887 0.224844346908507 0.946891629805255 0.913522867492995 -1.73727582447148 0.499980911144943 1.21126497669669 1.48406115250841 1.54386759967901 0.698405247560118 -1.86326663070256 0.681172178755847 -0.497689991409084 0.86063775398703 0.53535270606752 0.442859296525964 -0.562077490628065 1.10450550877182 0.774279424194538 -0.438367183329568 1.32916205582312 -0.61100219304187
0.170922474132891 0.395695563228403 -0.453605008202144 0.527442567951098 1.60473715945707 0.136124398003293 -0.111164761669115 -0.533301780078654 0.551059418078425 0.114195697639158 -0.408990908338917 0.527681133485913 -0.276101269417354 0.869604787483102 -0.0578814360768159 1.11355010147843 -0.48803047882153 0.725256486327729 1.39157947915956 -1.09955876271288 -1.48886871311787 -0.110493525749905 0.828303114259607 0.0321424897165823 1.173268682987
1.08599241089345 -1.25870312060548 0.914408371618958 0.926786462722005 0.53376296880976 0.70157077413355 0.921934586709574 -0.119401139764207 1.41667418057328 1.05589931969764 -2.25565796212826 0.294698168612415 -0.12996770823419 1.01382654799655 -0.572427151612214 1.43155875659919 -0.234840694261244 -0.182919457100804 -1.55641277372505 -0.700685220450627 -0.742749175686315 0.0682394584580761 1.62946351767985 1.27657688729482 0.6115726793111
-1.40072065723790 0.88102049114185 -1.38615379492424 -1.09448086802210 -0.382478743956685 -1.18473380756681 -0.965376771386095 0.938311671631006 -0.96650697899859 -1.62687997674959 0.0818357777514433 -1.46428235755909 1.02146597688131 -0.862040407023004 0.0375701208019461 0.204552588329245 0.260395301814341 -0.0772310963545695 -0.341513552994657 -0.3439779190981 -0.636388462384955 0.378159505141905 1.19610292996137 -1.18522747742304 0.515446166652504
-0.420437251690817 0.318043810043589 0.545839684682354 -0.309081517160246 0.147511443042073 -0.292628826441234 -0.255836079900369 0.0467445340471162 -0.142163338770934 0.594243511508971 1.13393688730783 -0.988885918495321 -0.642580641710539 0.649679463645944 -1.35551010457424 -0.173123756667833 1.30867352590167 -1.81191391910582 1.11987331965798 -1.01415565355683 0.907146641245386 -1.76884271375227 -0.786171306095601 -0.719755791648158 -2.34737950493439
1.02639981850099 0.818364552723583 0.387295432258927 0.112013749535770 -0.513999709335844 0.277276864464489 0.0755806941217674 0.404413087099705 0.492814396032332 0.90070791900321 -0.0958498604856327 1.27692546857326 -0.868810158005937 0.401536266272743 -0.279505401684084 0.134806616545332 1.07053009570319 0.197834103798842 1.56956050522881 0.0708258111195582 -0.908598365549152 1.25722344985995 -1.74383115966334 -0.258030292152844 -0.849814592821594
1.56032466192268 -0.171728115028546 1.37688969225727 1.45879364846614 1.57494935842646 1.3899056303295 0.35250553092616 -0.0853600206775012 1.41881583788471 0.98355374368149 -0.308068736197573 0.556803057162919 -0.765550939636947 1.32082727402826 -1.46676023857192 -0.750330153136677 0.0662734022068519 -0.714155562153199 -0.88613911928455 -1.71160010965534 0.090844683457011 0.746492677671182 -0.535667820735734 -0.516711970308684 -0.524098807415246
0.443167308543547 0.00173792711413993 1.00818485492366 0.409482059258247 1.22017798352518 0.341534756431837 0.602419577188796 0.119342987906759 0.94510895069824 0.805556602288495 -0.526871213264348 -1.54854261964440 -0.855581882033847 0.0835203512069391 -1.35846273697072 0.971997944679887 -1.44487514454567 -0.468412812952612 0.326222058196571 -1.19292117488852 1.07236411173015 0.814083432934727 0.575574441019406 1.55829997553830 -0.787996118862363
0.396223272179946 0.00474626631662666 0.372002494030878 0.877619599672012 0.941308586437045 0.662374820112497 1.34537951829260 0.796522297905082 0.588765458430451 -0.152351624360931 -0.140792656781939 -1.01954962348906 -0.157194562250709 -0.25679686660712 -0.678808020547208 0.595615882019425 0.899452190533753 1.05816618725823 -0.816571484714217 1.16185429705814 0.000825694174464904 0.614628015530623 0.842376236376166 0.672125175802154 -1.39641469857837
0.197066879445111 -0.976355749107977 -0.217432472722378 -0.0692290178789447 -1.13580691064814 -0.352415764354828 0.388522720221886 0.192113247496063 -0.277220451339823 -2.03813427487791 -0.193165915863825 -0.087565950555153 -1.26643412912642 -0.584632854161982 0.284694476097442 -1.28433844005483 -0.680032314613661 -1.07504325393862 -1.15431646098337 0.871333439922743 -0.0735566904727359 0.41776609254134 1.29727941695553 -0.351918565809083 1.02710149185255
-0.495692249327162 1.16252188805127 -0.540974263562699 -0.974556983657372 0.766725160383942 -0.919249346728383 -0.814094528871451 -0.050677062685506 -0.275690061497272 1.06956810020798 -0.786525976727404 0.327717606070591 0.674735027391565 0.326952216495672 -0.208572615985201 0.531515718890996 -0.55358437328102 -0.667612408100065 1.60488555377217 -0.192418678073566 0.100241233129250 0.279799030419877 0.682384896662145 -1.58139242795512 0.978786376968376
1.27387658794102 -0.347314735946950 1.23424637874288 0.80745151222243 0.618251594383552 0.864823007130973 0.579721960632015 -0.629505549674238 1.25955143830576 2.15298207345886 3.23702275580223 -0.632223283772582 -1.37063662688201 0.76514357730398 0.926280607032873 -1.19778383188862 1.48585229422720 -0.349681872983532 -0.329467810854259 -1.57481481187744 0.455456916006396 0.382265456175528 -0.163545965052706 0.532755405087866 0.220198579438988
1.2499866585732 -0.714573337243779 1.83033836174281 1.52483624764494 1.83092621871808 1.59408904263863 1.04384549486415 0.710375834443222 1.54216093157044 1.89678763818449 0.628554062998971 -0.70010754635946 -0.649898123222463 -0.99749369454551 -1.49870757963997 0.767692508215516 -1.26037718673076 0.178478149881771 0.298438744636226 -1.86589101274550 0.569329820725664 0.178329540518298 -0.274864164092532 -0.865498450101213 1.37697931178488
0.872979636092209 -1.21151104333029 0.869717247795467 0.216338657602087 0.490820978386443 0.719086748672454 0.888629270798652 0.845822257827146 0.14922011755098 0.720870483920467 -1.81972794081684 0.0771124706366047 0.608415971477533 -0.083798203026018 1.19835158003969 -0.73076702920681 0.478265862241792 -0.543848374574922 0.510190876916925 -0.202612750449200 -0.426723475243438 -1.67059031014797 0.364175614427959 1.14548399612180 1.54333369791535
0.980043172869777 -0.606366501420434 0.841938378646017 0.979291966429304 0.790822007159986 1.05712147109426 1.54886098471463 0.118421097778159 0.42400007904779 0.364855503256172 0.0791227108065222 0.178980534618790 0.644830260289384 -0.970067180351041 0.978708200214335 0.31178301463305 0.948307897834717 -1.06489319398069 0.289243564451613 0.0129679845645212 -0.205548107828456 1.49351781871722 0.673960813821913 1.74573567374104 0.390458342714201
0.274030840057105 -0.4961548098869 -0.0234334049450441 -0.283157685983883 0.424688433229218 -0.41855202226236 -0.851116973840637 -0.826559421708774 0.0410172403264875 -0.86025615606486 -0.289689086104138 1.27516229753185 -0.129982805669680 -0.5837388520218 -0.743752408428132 -0.788049444921003 -0.335981358161046 -0.399677622440076 0.391402984341322 -0.818792902121651 -0.290679449589181 -0.526984946488084 -1.38922682165252 1.40679760588067 -0.933701167772556
1.78225886135625 -0.893124645296604 1.78777639199093 1.91056125775082 1.31901966930962 2.02786062219958 0.58494776920378 0.913991712540752 2.03975211309313 1.44701048799721 0.371827809907238 0.58210154889625 -0.241509875825196 0.688173014426055 0.195240655267115 -0.173996791661383 1.31194914811387 -0.605111747074916 -0.548833524525603 -0.086453561056004 -0.585801346642443 0.364059254374901 -1.47770183891071 -1.11383298147038 0.0506423453224845
0.52716675819182 -0.7536284795332 0.296211337073775 0.0811418070368111 -1.18556031555115 0.171875536523917 0.083212569053746 1.99114946884382 0.363278009186617 -1.06744466960258 0.388302594394659 0.0466976400954547 -0.48197976380235 1.41981439960707 0.8092996134472 -1.22733205394768 -1.52158807555069 -0.0124816742082773 1.51963290937562 0.603937179786982 1.83298545923742 -1.58583314394853 -0.241842570773187 -1.00145029962128 1.67050117519255
-0.328743016518331 0.0613205372559217 -0.126523971639567 -0.302053462260798 -0.815643628850151 -0.312646173805906 -0.284583571929927 0.847585215669138 -0.0977209672912533 -0.0577405507213342 -0.671957781272639 -1.05101827646445 1.07435611486006 0.180466588878216 0.252200677802261 -0.64842260685455 0.090062767547689 0.134645512409658 -0.724881054354704 -1.43591159370601 1.03225210329038 -1.28658673464691 -0.721546225997068 0.33555563262988 0.538535767667224
1.214775019276 -1.85863240015199 1.01806779923382 1.15285023235445 1.92466421472316 1.05353070828941 1.10552718794314 2.69876113529027 1.64977286410903 1.27820429060046 1.15016143637846 -0.235218910584202 -1.20543534159814 -0.272287235605449 -1.40028087832671 1.68610590940219 0.157169398164423 -0.247696205178432 1.56396568016651 -0.078657508883561 1.09932164365599 -1.99408010644657 0.846737492622663 -0.559802494594022 0.295484969219308
-0.417493174933366 -1.60646643852489 0.759871997418961 0.146371671174873 0.112291745930523 0.000800530158606835 0.228572910388083 0.432992570122530 0.153853514722918 1.06701035149013 0.5768452132199 0.797372500862091 0.319842393622279 -1.04312416558589 1.15785005553307 0.265992909322476 0.531901838293779 0.926042878260618 -0.647724664775816 1.31155418110591 1.57479855132313 -1.69189533652444 -1.91875533646457 -0.0211911237473783 0.63242267089065
1.21299528685145 -0.427966717904877 0.805869702483054 0.486493795373635 -0.15599076977401 0.306866290515644 1.22695030248623 0.279427475880324 0.321324320559976 0.536473318338225 0.755368984128632 -0.427801651451049 -0.875017372231547 -1.56962800530378 0.315420916541048 1.05164435580363 -1.13447492482665 1.59150485461939 1.54964737291754 -0.750439564655048 0.475007748272426 0.708412278729754 -0.259613588546667 -0.275408200464982 -0.942259009737552
0.0223150795961895 2.61337678284178 0.266854788540735 -0.0193400760118808 -0.834895492482133 -0.0199394354261600 0.642603882154677 0.120171375567858 0.284447670767764 -0.210424729746412 0.848943965425144 1.57723681955815 -0.216077918445737 -1.04825592190801 0.299148572044578 0.179710636136845 1.59406354773571 -1.96981177422371 -0.77108045495532 -0.688161362223265 0.712020879570019 -0.668885537298176 1.11480023623459 0.531160782205851 -0.96536488367313
0.84154740530098 -0.627377292818652 -0.0081300070048711 -0.0169010598094233 -0.43885414043988 0.0584650452875926 1.1313261778465 -0.73049594190428 0.246248533243034 0.170009837567506 -0.020166674405867 -0.768016375593175 0.958604134420484 -1.90390457488118 0.468829445724087 -0.932713646963218 0.895024153366467 1.90265961867172 0.423250725812387 0.214903978000642 0.214327312257264 -0.30890990672283 1.82374466613548 1.01169116313224 1.29652135370877
0.872842824984362 -2.47545489563850 0.63228440752856 0.359482052339927 0.276323289311434 0.49217977425175 0.984260030173825 -2.50602283494152 0.501351158819265 1.21138608488489 0.0597976758285354 0.444930747472842 -0.808356872211106 1.25105455438547 0.625579986372278 -1.59270050005449 0.0105211114714105 0.0530800971904784 -1.22600488255012 -1.82274587002327 -0.389165905000662 0.730131773360063 -0.252826291925285 -0.217163357779149 1.30010958672701
-0.837025120905183 0.163209589011866 -0.476515734529059 -0.695137774847825 -0.307733333048052 -0.599946729756326 -0.386421519606628 -1.33792615060066 -0.845767405900189 -0.518927048256036 -0.338737682293325 0.888045647001239 -0.0841177703187539 0.354110700076198 1.47722278560733 0.683494553425824 -1.01998721607197 0.820890371524611 2.10877934894066 0.370501966843483 -1.13799712565978 0.90917389860119 -0.830052739241156 -0.565940369751959 -1.27625299862972
-1.58908882880191 0.525294764441337 -2.05190006229335 -2.28810986985395 -1.36471865489729 -2.27960041973678 -1.19665601031437 -0.833247620590919 -1.95744254096612 -0.726896465808176 -0.506431391915569 1.06633564199863 -0.156080981964309 0.208776467749239 -0.0173543302139985 1.1440873022347 0.6143109551871 1.00233805877471 0.425049428559869 0.375562647065497 -0.232114632810785 0.889951478895731 -2.84228862892534 0.817170398140647 -0.420289180340465
-1.30650878725941 1.69522803296546 -0.386603871458427 -0.257483777383305 -0.272631395395258 -0.212454274348751 -0.657866680964769 -1.42258546353833 -0.24310945091987 -0.81462556838272 0.131935620641288 -1.33675517019388 0.901229191999015 0.278133450256696 0.357509680678802 -1.44830282409036 -1.00028521821512 0.220469716700497 -0.900102422239418 -0.143046365982915 -0.297616988663351 -0.252294319347066 -0.958123037514133 -0.231930594746712 1.50726651483890
-0.214101759605194 -0.454322341546268 -1.16353600676937 -0.339431782303661 -0.463071598149628 -0.427459249934463 0.087378473799211 -1.15019710093629 -0.465534699581051 -0.572720015964569 2.19063178958642 2.37879927561731 -1.48549493330798 -0.678055285737115 -1.62318802872284 -0.629696120009652 0.241262450460821 1.26546046696562 0.687261452697515 -0.333755611272071 -0.503962164914787 0.955338208561547 -0.284766153959823 1.38981744902843 2.24870955825944
-0.0354668417525566 0.84896316510215 -0.634943572313994 -0.854803006237895 0.0420256240544004 -0.766308457178583 0.224535490039077 -0.967690962803545 -0.585071002053925 0.203089613424601 -0.07885606061462 0.2905962833337 -0.0652983019324875 -1.38519325966934 -0.677461971148346 0.128924828863102 0.541970995179097 -0.927857548011978 0.568834130240577 1.21175116701206 0.860449449412483 1.07942527021034 -0.314562278518218 -0.145992610393868 -0.209354319201493
0.954499736956582 0.388432475600188 0.59515020806658 0.701087258527519 1.54262276267986 0.768278078456193 0.803962730369188 -0.709802691503962 0.662521676845699 -0.121162611806634 1.85826418720859 2.21716893708232 -0.184330157301168 0.453259516215873 -0.846871700707376 -0.52736853993093 0.824609180961407 0.349278448414082 1.01694537302708 -1.37533506939014 -0.529734463984491 -0.495461866967721 0.651942075940801 -0.226793137185126 -1.48194038263013
1.25371765448666 -0.245303707681016 0.89399582675913 1.1518894834348 2.42479091221429 1.29460895763192 1.31122943871556 -0.787057854543576 0.689250979921024 1.56886954856036 1.07399253978700 -0.221324427995798 0.0106714995135322 0.738771522452973 0.376226060125064 -0.481478006052164 0.334823799099344 -1.40482642444122 -0.80902801299901 2.20946575405672 0.381072195233594 -1.29447428622277 -0.00703641074934913 0.423246990307531 -0.305151507805565
2.05314554056030 -0.647891509774127 1.47644093181682 1.57012004384928 1.77693689473094 1.83034867972001 1.71957890322042 0.0964131093039272 1.90225928266739 0.403041323975859 0.291319084227066 -1.94197465633038 -1.20964652737137 0.540880675120479 1.50676345513693 0.643434822938012 -0.68575761243347 0.462092079995733 -0.881731924726803 -1.23432000902796 0.857820768195809 0.641283871953955 -0.826954217727131 1.87557656872348 0.599693337241892
-0.56701646884426 2.10301990026929 -0.198040059301672 -0.505732467482954 0.293904560032675 -0.497340507094944 0.335335395814928 0.618039394176713 -0.375310503236048 -0.24441262556316 2.52449118233457 -0.0831298954212645 -0.156878538892875 0.494748257968962 2.58846100275797 -0.264483091654850 1.37274474705018 -0.00415965829846072 0.68529912337136 0.514950767773518 0.138184020941953 0.115854311124158 0.214647318737652 -0.0112732168186102 1.12312164246854
-0.0338347706378567 0.73816091486893 0.0425868210079315 -0.313355430549473 -0.47079344494934 -0.292609239016054 0.455678081615398 0.52924000809414 -0.087409561008924 -1.12914996763333 0.111693531736346 -1.25693748605741 1.25945902833359 0.449746939104894 -0.191772408549045 -0.181225777871641 -0.849548116577865 -0.276429032129852 0.732096370879743 0.998016400346624 1.34007779601177 -0.863730028591395 -0.0541629140082346 2.35646050211529 0.493438533047455
0.500746804835083 -1.26581144297047 1.45808621583745 1.24488329236303 1.36064796238650 1.37205135521728 0.64998253651401 1.96550678779255 1.22828600473742 1.02679424290376 0.690601898027871 -0.840427639403986 0.646139620868429 0.325961095921992 -0.824456738813659 -1.16796973004189 0.199376600083041 -0.799108694186297 1.58927511483721 1.32796308530130 -0.228282396508632 0.329312924152487 0.205352290905886 -0.125042449075253 2.14761373479665
-1.08443534513212 0.098856122543538 0.0132017077481047 -0.48720870763166 -1.50696074622644 -0.649757903084383 -0.52071020343753 0.133555267528758 -0.282156370461323 -0.831930215030497 0.749737482159474 0.102585045703135 -0.971694563488111 0.676273538336729 1.86582107858912 1.68405399209082 1.08491358778942 -0.310223984644785 -1.38931898071565 0.699886466302227 -0.906674683112142 -0.426886312698406 -0.035328868277458 0.484761181524895 -0.975100351303403
-1.38777173063145 -0.400089658302964 -1.82827362217922 -1.64994083907916 -1.96364336294270 -1.69143482946859 -1.58977863345170 0.163466618815872 -1.54258359197878 -1.17561399685765 0.9438869292661 -0.104118772872885 -1.05535855118311 -0.279374354608095 0.461747368690992 2.11437352114420 0.528483176942573 -1.75561969004336 0.54585241764774 0.83414209603936 -1.16305077278666 0.512139954745035 0.528529425821719 -0.248205305122749 0.341333153747094
0.273761534712114 0.930583890052678 0.238344366126375 0.322445187588669 1.26578770387574 0.270407778629911 -0.183261419386220 -1.39783945096226 0.194003356130685 -0.0104848011048878 0.179967895976153 -0.454740641224016 0.2815991406174 0.534744888750114 -0.0452720598871322 1.84735035207879 -0.786710590899989 1.71418739966555 -0.144567313350755 -1.04151783703390 -1.06718575741143 -1.16963255246328 -0.203969738076810 -0.173766163861387 -0.0561314421461463
1.29225996497578 -0.468256014273013 1.82451733845382 1.49298157646137 1.79582099998629 1.51703541048635 0.964901459042437 -0.162808566081940 1.41446089829276 -0.906656142738146 0.926966326731607 -0.342783754867321 0.577356920731697 -0.514960914102707 -1.56823100898232 -1.28963227401244 0.786265644788506 -0.795979037408843 0.0170772684502194 -0.339841180021847 -0.641596292466861 0.549999742854349 0.022059575112122 0.847363188099682 -1.80692250819868
-0.301422380778513 -0.532403874617697 -0.52041405334354 -0.331639955533474 0.107887948445809 -0.421089757517867 -0.33772378884009 0.750544557854338 -0.644862752838106 -0.434838869242716 0.615033119355741 0.774856464667052 -0.126168905636036 2.47310413647413 1.47351803356418 -0.778374268107848 -0.817374278468291 -1.22603071043623 -0.454732756309425 -1.01360344731060 0.404135662792996 -1.40705493240334 0.504929720515325 -0.398431636511517 0.00554730651274667
-0.601989332514834 1.12820931679985 -0.810761512038756 -0.317346241944398 -0.0147820512364084 -0.732097348352421 -0.352903565293371 0.325646492825043 -0.309831125037423 0.822462449802688 -0.826986440679319 1.31384700093451 3.67379150514033 0.9364772842066 -0.497695945198568 0.817235072158369 -0.491195618304897 -1.22465156841006 -2.14355066959095 0.248461059641844 2.01949270710315 0.273961911967997 -0.745070436783777 -0.611189195068949 0.0190881595648517
0.580987856898796 -1.16762382340246 0.601334077592235 0.0791303913422268 0.0395515235061261 0.123345679761011 0.337603754554456 0.227213160180427 0.205970947988961 0.503045755402577 -1.51506977054908 1.42668976184460 -0.405254253486141 -0.764215578302949 -0.80391643764684 -0.326004609606905 0.603009373651561 -0.0270754566535268 -1.13200932088552 0.910463524806487 -0.00978689769397276 0.550094928769586 0.267716397136208 1.04508729279758 2.62459203168447
-1.87637597006665 0.837487144706697 -1.51001145444035 -1.81558751980061 -1.82550780271810 -2.26279786373969 -2.61712140782794 -0.282344987347433 -2.04575579675094 -1.25127623889605 -1.19990701788824 1.03717491422216 -0.00532215181522037 -0.224743061621901 0.218717423184316 0.86133496742356 0.497378148030123 0.116249644436347 -0.21675277144359 1.06134484807134 0.221802153423714 -0.411842291693774 0.327760452935414 -1.69826909737726 -0.647134170411281
0.539830713464355 -0.635335676831315 -0.153878972686151 0.129314134048156 0.777444261421889 0.288089057537581 0.320851645217933 -1.48932143177291 -0.399353027213231 1.22110167346411 -0.534654639997284 1.22854177880955 -1.08419923300846 0.0715810976423279 -0.701332175004376 -0.434824471092994 0.645786873272761 0.492964076310811 0.724990027018494 1.50502455366362 -1.3936972997513 -2.33183914743033 -0.349091247868337 -0.213317359652707 -0.933758129703133
-0.293731213486239 0.117166053129396 -0.0151335955797300 -0.177569462676461 0.581838625045712 -0.166392647170882 0.288224805629433 -0.837078942362478 -0.143903128290454 0.338051278986532 -0.267289938416226 -0.22877758318024 0.141943137093113 0.672260097988516 -0.572100816075364 -1.37395806442357 0.421947867635394 0.872291047959439 -0.23479912659529 0.693450794209314 -0.0715299717706755 1.09446041151703 0.131140455137857 -0.375051178545538 0.899609323888477
0.718661098854172 1.07034303154518 0.873051550332199 0.749680888895688 -0.552777910319484 0.6978712879615 0.476734261033392 2.21681663093279 0.626005020649538 0.214348953724675 0.28387933229737 -0.252956588427503 0.264906723779158 -0.678602734213937 -0.00631876382786218 -0.477966532876496 -0.37826435590973 0.73364382767873 0.0834312950161324 1.68594669918229 1.17517960846684 0.742367909249897 -0.595378817585547 -0.895096247598287 0.226164997226315
