\relax 
\citation{Leng:2012}
\citation{Jung:2014}
\citation{Jung:2014}
\citation{Leng:2012}
\citation{Bahadori:2014}
\citation{Zhu:2014}
\select@language{american}
\@writefile{toc}{\select@language{american}}
\@writefile{lof}{\select@language{american}}
\@writefile{lot}{\select@language{american}}
\@writefile{toc}{\contentsline {section}{\numberline {1}Graphs for matrix Normal stationary tensors}{1}}
\citation{Zhu:2014}
\citation{Mohan:2014}
\citation{Danaher:2014}
\citation{Wilson:2010}
\citation{Liu:2012}
\citation{Jung:2014}
\citation{Wilson:2010}
\@writefile{toc}{\contentsline {section}{\numberline {2}Graphs for Functional Data}{2}}
\@writefile{toc}{\contentsline {section}{\numberline {3}Differences between graphs}{2}}
\@writefile{toc}{\contentsline {section}{\numberline {4}Copula Process Graphs}{2}}
\citation{Jung:2014}
\bibdata{timegraphs}
\bibcite{Leng:2012}{1}
\bibcite{Jung:2014}{2}
\bibcite{Bahadori:2014}{3}
\bibcite{Zhu:2014}{4}
\bibcite{Wilson:2010}{5}
\bibcite{Liu:2012}{6}
\bibcite{Mohan:2014}{7}
\bibcite{Danaher:2014}{8}
\bibstyle{unsrt}
